101;Men 400 LC Meter Freestyle S9;4;M;0;109;400;A;I;F
102;Men 400 LC Meter Freestyle S10;4;M;0;109;400;A;I;F
103;Men 400 LC Meter Freestyle S11 - 13;4;M;0;109;400;A;I;F
104;Women 400 LC Meter Freestyle S11 - 13;4;F;0;109;400;A;I;F
105;Men 200 LC Meter Freestyle S14;2;M;0;109;200;A;I;F
106;Women 200 LC Meter Freestyle S14;2;F;0;109;200;A;I;F
107;Men 200 LC Meter Freestyle S5;2;M;0;109;200;A;I;F
108;Women 200 LC Meter Freestyle S1 - 5;2;F;0;109;200;A;I;F
109;Men 100 LC Meter Breaststroke SB4;1;M;0;109;100;C;I;F
110;Men 100 LC Meter Breaststroke SB5;1;M;0;109;100;C;I;F
111;Men 100 LC Meter Breaststroke SB6;1;M;0;109;100;C;I;F
112;Women 100 LC Meter Breaststroke SB6;1;F;0;109;100;C;I;F
113;Men 100 LC Meter Breaststroke SB7;1;M;0;109;100;C;I;F
114;Women 100 LC Meter Breaststroke SB7;1;F;0;109;100;C;I;F
115;Men 100 LC Meter Breaststroke SB8;1;M;0;109;100;C;I;F
116;Women 100 LC Meter Breaststroke SB8;1;F;0;109;100;C;I;F
117;Men 50 LC Meter Breaststroke SB1-3;1;M;0;109;50;C;I;F
118;Women 50 LC Meter Breaststroke SB1-3;1;F;0;109;50;C;I;F
