219;Men 100 LC Meter Breaststroke SB9;1;M;0;109;100;C;I;F
220;Women 100 LC Meter Breaststroke SB9;1;F;0;109;100;C;I;F
221;Men 100 LC Meter Breaststroke SB11;1;M;0;109;100;C;I;F
222;Women 100 LC Meter Breaststroke SB11 - 13;1;F;0;109;100;C;I;F
223;Men 100 LC Meter Breaststroke SB12 - 13;1;M;0;109;100;C;I;F
224;Women 100 LC Meter Breaststroke SB14;1;F;0;109;100;C;I;F
225;Men 100 LC Meter Breaststroke SB14;1;M;0;109;100;C;I;F
226;Men 50 LC Meter Freestyle S5;1;M;0;109;50;A;I;F
227;Women 50 LC Meter Freestyle S5;1;F;0;109;50;A;I;F
228;Men 50 LC Meter Freestyle S6;1;M;0;109;50;A;I;F
229;Women 50 LC Meter Freestyle S6;1;F;0;109;50;A;I;F
230;Men 50 LC Meter Freestyle S7;1;M;0;109;50;A;I;F
231;Women 50 LC Meter Freestyle S7;1;F;0;109;50;A;I;F
232;Men 50 LC Meter Freestyle S8;1;M;0;109;50;A;I;F
233;Women 50 LC Meter Freestyle S8;1;F;0;109;50;A;I;F
234;Men 50 LC Meter Freestyle S9;1;M;0;109;50;A;I;F
235;Women 50 LC Meter Freestyle S9;1;F;0;109;50;A;I;F
236;Men 50 LC Meter Freestyle S10;1;M;0;109;50;A;I;F
237;Women 50 LC Meter Freestyle S10;1;F;0;109;50;A;I;F
238;Men 50 LC Meter Freestyle S11;1;M;0;109;50;A;I;F
239;Women 50 LC Meter Freestyle S11;1;F;0;109;50;A;I;F
240;Men 50 LC Meter Freestyle S12;1;M;0;109;50;A;I;F
241;Men 50 LC Meter Freestyle S13;1;M;0;109;50;A;I;F
242;Men 50 LC Meter Butterfly S7;1;M;0;109;50;D;I;F
243;Women 50 LC Meter Butterfly S2 - 5;1;F;0;109;50;D;I;F
244;Women 50 LC Meter Backstroke S5;1;F;0;109;50;B;I;F
245;Women 50 LC Meter Backstroke S1-4;1;F;0;109;50;B;I;F
