346;Men 100 LC Meter Freestyle S5;1;M;0;109;100;A;I;F
347;Women 100 LC Meter Freestyle S5;1;F;0;109;100;A;I;F
348;Women 100 LC Meter Freestyle S6;1;F;0;109;100;A;I;F
349;Men 100 LC Meter Freestyle S8;1;M;0;109;100;A;I;F
350;Women 100 LC Meter Freestyle S8;1;F;0;109;100;A;I;F
351;Men 100 LC Meter Freestyle S9;1;M;0;109;100;A;I;F
352;Women 100 LC Meter Freestyle S9;1;F;0;109;100;A;I;F
353;Men 100 LC Meter Freestyle S10;1;M;0;109;100;A;I;F
354;Women 100 LC Meter Freestyle S10;1;F;0;109;100;A;I;F
355;Men 100 LC Meter Freestyle S11;1;M;0;109;100;A;I;F
356;Women 100 LC Meter Freestyle S11;1;F;0;109;100;A;I;F
357;Men 100 LC Meter Freestyle S12;1;M;0;109;100;A;I;F
358;Women 100 LC Meter Freestyle S12 - 13;1;F;0;109;100;A;I;F
359;Men 100 LC Meter Freestyle S13;1;M;0;109;100;A;I;F
360;Men 200 LC Meter IM SM5 - 6;2;M;0;109;200;E;I;F
361;Women 200 LC Meter IM SM5 - 6;2;F;0;109;200;E;I;F
362;Men 200 LC Meter IM SM8;2;M;0;109;200;E;I;F
363;Men 200 LC Meter IM SM9;2;M;0;109;200;E;I;F
364;Men 200 LC Meter IM SM11;2;M;0;109;200;E;I;F
365;Men 200 LC Meter IM SM12 - 13;2;M;0;109;200;E;I;F
366;Men 200 LC Meter IM SM14;2;M;0;109;200;E;I;F
367;Women 200 LC Meter IM SM14;2;F;0;109;200;E;I;F
368;Women 50 LC Meter Butterfly S2-5;1;F;0;109;50;D;I;F
369;Women 50 LC Meter Butterfly S6;1;F;0;109;50;D;I;F
