471;Men 100 LC Meter Butterfly S8;1;M;0;109;100;D;I;F
472;Men 100 LC Meter Butterfly S9;1;M;0;109;100;D;I;F
473;Women 100 LC Meter Butterfly S9;1;F;0;109;100;D;I;F
474;Men 100 LC Meter Butterfly S10;1;M;0;109;100;D;I;F
475;Men 100 LC Meter Butterfly S11 - 13;1;M;0;109;100;D;I;F
476;Men 100 LC Meter Butterfly S14;1;M;0;109;100;D;I;F
477;Women 100 LC Meter Butterfly S14;1;F;0;109;100;D;I;F
478;Men 100 LC Meter Backstroke S7;1;M;0;109;100;B;I;F
479;Women 100 LC Meter Backstroke S8;1;F;0;109;100;B;I;F
480;Men 100 LC Meter Backstroke S9;1;M;0;109;100;B;I;F
481;Women 100 LC Meter Backstroke S10;1;F;0;109;100;B;I;F
482;Men 100 LC Meter Backstroke S10;1;M;0;109;100;B;I;F
483;Men 100 LC Meter Backstroke S11;1;M;0;109;100;B;I;F
484;Men 100 LC Meter Backstroke S12 - 13;1;M;0;109;100;B;I;F
485;Men 100 LC Meter Backstroke S14;1;M;0;109;100;B;I;F
486;Women 100 LC Meter Backstroke S14;1;F;0;109;100;B;I;F
487;Men 100 LC Meter Backstroke S8;1;M;0;109;100;B;I;F
488;Men 400 LC Meter Freestyle S7;4;M;0;109;400;A;I;F
489;Women 100 LC Meter Butterfly S8;1;F;0;109;100;D;I;F
